<<<<<<< HEAD
<<<<<<< HEAD
<<<<<<< HEAD
Mathias Hachani
=======
<<<<<<< HEAD


























Portois Tristan
Dieu Idéal Parfait (Modeste)

=======
﻿RomainP il fait plus haut
=======

<<<<<<< HEAD
Kokelka sasha
Portois Tristan
Dieu Idéal Parfait (Modeste)
﻿RomainP il fait plus haut
=======
Alexis DESSENNE 
<<<<<<< HEAD

======


Dieu Idéal Parfait (Modeste)
Anthony BERTRAND
Portois Tristan
enora la plus belle 
Guillaume RIZZO
Kévin Pejean
<<<<<<< HEAD

=======
Romain P:w
>>>>>>> 45f5a4a4475a8bad19d1f77ec4746e38243cd959
